Auto Formation R avancé
…
iris <- read.csv("data/iris.csv")
head(iris)

##   sepal_length sepal_width petal_length petal_width species
## 1          5.1         3.5          1.4         0.2  setosa
## 2          4.9         3.0          1.4         0.2  setosa
## 3          4.7         3.2          1.3         0.2  setosa
## 4          4.6         3.1          1.5         0.2  setosa
## 5          5.0         3.6          1.4         0.2  setosa
## 6          5.4         3.9          1.7         0.4  setosa

iris <- readr::read_csv("data/iris.csv")
iris

## # A tibble: 150 x 5
##    sepal_length sepal_width petal_length petal_width species
##           <dbl>       <dbl>        <dbl>       <dbl>   <chr>
##  1          5.1         3.5          1.4         0.2  setosa
##  2          4.9         3.0          1.4         0.2  setosa
##  3          4.7         3.2          1.3         0.2  setosa
##  4          4.6         3.1          1.5         0.2  setosa
##  5          5.0         3.6          1.4         0.2  setosa
##  6          5.4         3.9          1.7         0.4  setosa
##  7          4.6         3.4          1.4         0.3  setosa
##  8          5.0         3.4          1.5         0.2  setosa
##  9          4.4         2.9          1.4         0.2  setosa
## 10          4.9         3.1          1.5         0.1  setosa
## # ... with 140 more rows
6.2.2 tidyr

Fonctions de mise au format tidy

Évolution des fonctions classiques type reshape

fonctions spread, gather, unite, separate

iris_sepal <- add_column(iris, ind = 1:nrow(iris))
iris_sepal <- select(iris_sepal, ind, sepal_length, sepal_width, species)
iris_sepal <- gather(iris_sepal, key="attribute", value="measure", -species, -ind)
iris_sepal <- arrange(iris_sepal, ind)
iris_sepal

## # A tibble: 300 x 4
##      ind species    attribute measure
##    <int>   <chr>        <chr>   <dbl>
##  1     1  setosa sepal_length     5.1
##  2     1  setosa  sepal_width     3.5
##  3     2  setosa sepal_length     4.9
##  4     2  setosa  sepal_width     3.0
##  5     3  setosa sepal_length     4.7
##  6     3  setosa  sepal_width     3.2
##  7     4  setosa sepal_length     4.6
##  8     4  setosa  sepal_width     3.1
##  9     5  setosa sepal_length     5.0
## 10     5  setosa  sepal_width     3.6
## # ... with 290 more rows
…
6.2.4 purrr

Définition de l’opérateur pipe %>% pour “enchaîner” les traitement sur un tibble

Force à la programmation fonctionnelle (une fonction = un argument, une sortie)

iris_sepal <- iris %>%  add_column(ind = 1:nrow(iris)) %>%
    select(ind, sepal_length, sepal_width, species) %>%
  gather(key="attribute", value="measure", -species, -ind) %>%
  arrange(ind)
iris_sepal

## # A tibble: 300 x 4
##      ind species    attribute measure
##    <int>   <chr>        <chr>   <dbl>
##  1     1  setosa sepal_length     5.1
##  2     1  setosa  sepal_width     3.5
##  3     2  setosa sepal_length     4.9
##  4     2  setosa  sepal_width     3.0
##  5     3  setosa sepal_length     4.7
##  6     3  setosa  sepal_width     3.2
##  7     4  setosa sepal_length     4.6
##  8     4  setosa  sepal_width     3.1
##  9     5  setosa sepal_length     5.0
## 10     5  setosa  sepal_width     3.6
## # ... with 290 more rows
…
